<?xml version="1.0" encoding="UTF-8"?>
<session version="1.0">
<refactoring comment="Delete resource &apos;TP4_FRTOS/source/ejemplo_FRTOS.txt&apos;" deleteContents="false" description="Delete resource &apos;TP4_FRTOS/source/ejemplo_FRTOS.txt&apos;" element1="/TP4_FRTOS/source/ejemplo_FRTOS.txt" flags="7" id="org.eclipse.ltk.core.refactoring.delete.resources" resources="1" stamp="1563206681165"/>
</session>